{
  "build": {
    "core": "stm32",
    "cpu": "cortex-m4",
    "extra_flags": "-DSTM32F4 -DSTM32F417xx -DSTM32F40_41xxx",
    "f_cpu": "168000000L",
    "mcu": "stm32f417igh6",
    "product_line": "STM32F417xx",
    "stm32cube": {
        "variant": "STM324xG_EVAL"
    }
  },
  "debug": {
    "default_tools": [
      "stlink"
    ],
    "jlink_device": "STM32F417IGH6",
    "onboard_tools": [
      "stlink"
    ],
    "openocd_target": "stm32f4x",
    "svd_path": "STM32F417.svd"
  },
  "frameworks": [
    "cmsis",
    "freertos",
    "stm32cube"
  ],
  "name": "ST STM3241G-EVAL",
  "upload": {
    "maximum_ram_size": 131072,
    "maximum_size": 1048576,
    "protocol": "stlink",
    "protocols": [
      "jlink",
      "cmsis-dap",
      "stlink",
      "blackmagic",
      "mbed"
    ]
  },
  "url": "https://www.st.com/en/evaluation-tools/stm3241g-eval.html",
  "vendor": "ST"
}
